{
    "scenarioId": 1,
    "name": "Myšlení 1",
    "lastChange": "2018-01-05T08:40:51.620Z",
    "note": "",
    "image": {
        "resourceUri": "https://example.com/img/scenario1.jpg",
        "mimeType": "image/jpeg",
        "fileSize": 12985,
        "createdOn": "2018-01-05T12:50:08Z",
        "dimensions": {
            "width": 320,
            "height": 240
        }
    },
    "items": [
        {
            "type": "taskSetting",
            "data": {
                "taskSettingId": 1,
                "taskId": 1,
                "name": "Třídění kuliček",
                "difficulty": 1,
                "image": {
                    "resourceUri": "https://example.com/img/obrazek.jpg",
                    "mimeType": "image/jpeg",
                    "fileSize": 17635,
                    "createdOn": "2018-11-30T12:50:08Z",
                    "dimensions": {
                        "width": 320,
                        "height": 240
                    }
                }
            }
        },{
            "type": "taskSetting",
            "data": {
                "taskSettingId": 2,
                "taskId": 1,
                "name": "Auto a Loď",
                "difficulty": 2,
                "image": {
                    "resourceUri": "https://example.com/img/obrazek.jpg",
                    "mimeType": "image/jpeg",
                    "fileSize": 17635,
                    "createdOn": "2018-11-11T12:50:08Z",
                    "dimensions": {
                        "width": 320,
                        "height": 240
                    }
                }
            }
        },{
            "type": "task",
            "data": {
                "taskId": 2,
                "name": "Počáteční písmena",
                "categories": [
                    {
                        "categoryId": 1
                    },{
                        "categoryId": 3
                    }
                ],
                "image": {
                    "resourceUri": "https://example.com/img/firstletters.jpg",
                    "mimeType": "image/jpeg",
                    "fileSize": 10394,
                    "createdOn": "2017-12-01T12:50:08Z",
                    "dimensions": {
                        "width": 320,
                        "height": 240
                    }
                }
            }
        },{
            "type": "taskSettings",
            "data": {
                "taskSettingId": 4,
                "taskId": 1,
                "name": "Barevné míčky",
                "difficulty": 4,
                "image": {
                    "resourceUri": "https://example.com/img/coloredballs.jpg",
                    "mimeType": "image/jpeg",
                    "fileSize": 32104,
                    "createdOn": "2018-11-21T12:50:08Z",
                    "dimensions": {
                        "width": 320,
                        "height": 240
                    }
                }
            }
        }
    ]
} 
