[
    {
        "scenarioId": 1,
        "name": "Myšlení 1",
        "lastChange": "2018-01-05T08:40:51.620Z",
        "note": "",
        "image": {
            "resourceUri": "https://example.com/img/scenario1.jpg",
            "mimeType": "image/jpeg",
            "fileSize": 12985,
            "createdOn": "2018-01-05T12:50:08Z",
            "dimensions": {
                "width": 320,
                "height": 240
            }
        }
    },{
        "scenarioId": 2,
        "name": "Zrak - těžší",
        "lastChange": "2018-01-06T08:40:51.620Z",
        "note": "",
        "image": {
            "resourceUri": "https://example.com/img/scenario2.jpg",
            "mimeType": "image/jpeg",
            "fileSize": 12483,
            "createdOn": "2018-01-05T10:50:08Z",
            "dimensions": {
                "width": 320,
                "height": 240
            }
        }
    },{
        "scenarioId": 3,
        "name": "Zrak - lehčí",
        "lastChange": "2018-01-06T08:40:51.620Z",
        "note": "Liší se v třídění",
        "image": {
            "resourceUri": "https://example.com/img/scenario3.jpg",
            "mimeType": "image/jpeg",
            "fileSize": 43384,
            "createdOn": "2017-09-01T12:00:00Z",
            "dimensions": {
                "width": 320,
                "height": 240
            }
        }
    },{
        "scenarioId": 4,
        "name": "Paměť",
        "lastChange": "2018-01-01T08:40:51.620Z",
        "note": "",
        "image": {
            "resourceUri": "https://example.com/img/scenario4.jpg",
            "mimeType": "image/jpeg",
            "fileSize": 52985,
            "createdOn": "2017-11-01T12:50:08Z",
            "dimensions": {
                "width": 320,
                "height": 240
            }
        }
    },{
        "scenarioId": 5,
        "name": "Všeobecný test",
        "lastChange": "2018-01-01T08:45:50.220Z",
        "note": "",
        "image": {
            "resourceUri": "https://example.com/img/scenario5.jpg",
            "mimeType": "image/jpeg",
            "fileSize": 62985,
            "createdOn": "2018-11-01T12:50:08Z",
            "dimensions": {
                "width": 320,
                "height": 240
            }
        }
    }
]
