{
    "taskId": 1,
    "name": "Třídění",
    "categories": [
        {
            "categoryId": 1,
            "name": "Řeč",
            "image": {
                "resourceUri": "https://example.com/img/speech.jpg",
                "mimeType": "image/jpeg",
                "fileSize": 12405,
                "createdOn": "2018-10-01T12:50:08Z",
                "dimensions": {
                    "width": 320,
                    "height": 240
                }
            }
        },{
            "categoryId": 2,
            "name": "Zrak",
            "image": {
                "resourceUri": "https://example.com/img/sight.jpg",
                "mimeType": "image/jpeg",
                "fileSize": 47635,
                "createdOn": "2018-04-01T12:50:08Z",
                "dimensions": {
                    "width": 320,
                    "height": 240
                }
            }
        }
    ],
    "image": {
        "resourceUri": "https://example.com/img/sorting.jpg",
        "mimeType": "image/jpeg",
        "fileSize": 32100,
        "createdOn": "2018-02-01T12:50:08Z",
        "dimensions": {
            "width": 320,
            "height": 240
        }
    },
    "taskSettings": [
        {
            "taskSettingId": 1,
            "taskId": 1,
            "name": "Třídění kuliček",
            "difficulty": 1,
            "image": {
                "resourceUri": "https://example.com/img/obrazek.jpg",
                "mimeType": "image/jpeg",
                "fileSize": 17635,
                "createdOn": "2018-11-30T12:50:08Z",
                "dimensions": {
                    "width": 320,
                    "height": 240
                }
            }
        },{
            "taskSettingId": 2,
            "taskId": 1,
            "name": "Auto a Loď",
            "difficulty": 2,
            "image": {
                "resourceUri": "https://example.com/img/obrazek.jpg",
                "mimeType": "image/jpeg",
                "fileSize": 17635,
                "createdOn": "2018-11-11T12:50:08Z",
                "dimensions": {
                    "width": 320,
                    "height": 240
                }
            }
        },{
            "taskSettingId": 3,
            "taskId": 1,
            "name": "Zahrada",
            "difficulty": 3,
            "image": {
                "resourceUri": "https://example.com/img/garden.jpg",
                "mimeType": "image/jpeg",
                "fileSize": 22314,
                "createdOn": "2016-12-01T12:50:08Z",
                "dimensions": {
                    "width": 320,
                    "height": 240
                }
            }
        },{
            "taskSettingId": 4,
            "taskId": 1,
            "name": "Barevné míčky",
            "difficulty": 4,
            "image": {
                "resourceUri": "https://example.com/img/coloredballs.jpg",
                "mimeType": "image/jpeg",
                "fileSize": 32104,
                "createdOn": "2018-11-21T12:50:08Z",
                "dimensions": {
                    "width": 320,
                    "height": 240
                }
            }
        }
    ]
}
